{
  "page": 1,
  "total_results": 326150,
  "total_pages": 16308,
  "results": [
    {
      "vote_count": 11103,
      "id": 293660,
      "video": false,
      "vote_average": 7.4,
      "title": "Deadpool",
      "popularity": 726.577029,
      "poster_path": "/inVq3FRqcYIRl2la8iZikYYxFNR.jpg",
      "original_language": "en",
      "original_title": "Deadpool",
      "genre_ids": [
        28,
        12,
        35
      ],
      "backdrop_path": "/n1y094tVDFATSzkTnFxoGZ1qNsG.jpg",
      "adult": false,
      "overview": "Deadpool tells the origin story of former Special Forces operative turned mercenary Wade Wilson, who after being subjected to a rogue experiment that leaves him with accelerated healing powers, adopts the alter ego Deadpool. Armed with his new abilities and a dark, twisted sense of humor, Deadpool hunts down the man who nearly destroyed his life.",
      "release_date": "2016-02-09"
    },
    {
      "vote_count": 4632,
      "id": 211672,
      "video": false,
      "vote_average": 6.4,
      "title": "Minions",
      "popularity": 721.097441,
      "poster_path": "/q0R4crx2SehcEEQEkYObktdeFy.jpg",
      "original_language": "en",
      "original_title": "Minions",
      "genre_ids": [
        10751,
        16,
        12,
        35
      ],
      "backdrop_path": "/uX7LXnsC7bZJZjn048UCOwkPXWJ.jpg",
      "adult": false,
      "overview": "Minions Stuart, Kevin and Bob are recruited by Scarlet Overkill, a super-villain who, alongside her inventor husband Herb, hatches a plot to take over the world.",
      "release_date": "2015-06-17"
    },
    {
      "vote_count": 1202,
      "id": 346364,
      "video": false,
      "vote_average": 7.5,
      "title": "It",
      "popularity": 661.035988,
      "poster_path": "/9E2y5Q7WlCVNEhP5GiVTjhEhx1o.jpg",
      "original_language": "en",
      "original_title": "It",
      "genre_ids": [
        12,
        18,
        27
      ],
      "backdrop_path": "/tcheoA2nPATCm2vvXw2hVQoaEFD.jpg",
      "adult": false,
      "overview": "In a small town in Maine, seven children known as The Losers Club come face to face with life problems, bullies and a monster that takes the shape of a clown called Pennywise.",
      "release_date": "2017-09-05"
    },
    {
      "vote_count": 5362,
      "id": 321612,
      "video": false,
      "vote_average": 6.8,
      "title": "Beauty and the Beast",
      "popularity": 569.974472,
      "poster_path": "/tWqifoYuwLETmmasnGHO7xBjEtt.jpg",
      "original_language": "en",
      "original_title": "Beauty and the Beast",
      "genre_ids": [
        10751,
        14,
        10749
      ],
      "backdrop_path": "/6aUWe0GSl69wMTSWWexsorMIvwU.jpg",
      "adult": false,
      "overview": "A live-action adaptation of Disney's version of the classic 'Beauty and the Beast' tale of a cursed prince and a beautiful young woman who helps him break the spell.",
      "release_date": "2017-03-16"
    },
    {
      "vote_count": 12013,
      "id": 155,
      "video": false,
      "vote_average": 8.2,
      "title": "The Dark Knight",
      "popularity": 515.014112,
      "poster_path": "/1hRoyzDtpgMU7Dz4JF22RANzQO7.jpg",
      "original_language": "en",
      "original_title": "The Dark Knight",
      "genre_ids": [
        18,
        28,
        80,
        53
      ],
      "backdrop_path": "/nnMC0BM6XbjIIrT4miYmMtPGcQV.jpg",
      "adult": false,
      "overview": "Batman raises the stakes in his war on crime. With the help of Lt. Jim Gordon and District Attorney Harvey Dent, Batman sets out to dismantle the remaining criminal organizations that plague the streets. The partnership proves to be effective, but they soon find themselves prey to a reign of chaos unleashed by a rising criminal mastermind known to the terrified citizens of Gotham as the Joker.",
      "release_date": "2008-07-16"
    },
    {
      "vote_count": 10881,
      "id": 157336,
      "video": false,
      "vote_average": 8.1,
      "title": "Interstellar",
      "popularity": 510.847274,
      "poster_path": "/nBNZadXqJSdt05SHLqgT0HuC5Gm.jpg",
      "original_language": "en",
      "original_title": "Interstellar",
      "genre_ids": [
        12,
        18,
        878
      ],
      "backdrop_path": "/xu9zaAevzQ5nnrsXN6JcahLnG4i.jpg",
      "adult": false,
      "overview": "Interstellar chronicles the adventures of a group of explorers who make use of a newly discovered wormhole to surpass the limitations on human space travel and conquer the vast distances involved in an interstellar voyage.",
      "release_date": "2014-11-05"
    },
    {
      "vote_count": 6144,
      "id": 177572,
      "video": false,
      "vote_average": 7.8,
      "title": "Big Hero 6",
      "popularity": 508.364157,
      "poster_path": "/3zQvuSAUdC3mrx9vnSEpkFX0968.jpg",
      "original_language": "en",
      "original_title": "Big Hero 6",
      "genre_ids": [
        12,
        10751,
        16,
        28,
        35
      ],
      "backdrop_path": "/2BXd0t9JdVqCp9sKf6kzMkr7QjB.jpg",
      "adult": false,
      "overview": "The special bond that develops between plus-sized inflatable robot Baymax, and prodigy Hiro Hamada, who team up with a group of friends to form a band of high-tech heroes.",
      "release_date": "2014-10-24"
    },
    {
      "vote_count": 9751,
      "id": 118340,
      "video": false,
      "vote_average": 7.8,
      "title": "Guardians of the Galaxy",
      "popularity": 480.159323,
      "poster_path": "/y31QB9kn3XSudA15tV7UWQ9XLuW.jpg",
      "original_language": "en",
      "original_title": "Guardians of the Galaxy",
      "genre_ids": [
        28,
        878,
        12
      ],
      "backdrop_path": "/bHarw8xrmQeqf3t8HpuMY7zoK4x.jpg",
      "adult": false,
      "overview": "Light years from Earth, 26 years after being abducted, Peter Quill finds himself the prime target of a manhunt after discovering an orb wanted by Ronan the Accuser.",
      "release_date": "2014-07-30"
    },
    {
      "vote_count": 13761,
      "id": 27205,
      "video": false,
      "vote_average": 8.1,
      "title": "Inception",
      "popularity": 460.849701,
      "poster_path": "/qmDpIHrmpJINaRKAfWQfftjCdyi.jpg",
      "original_language": "en",
      "original_title": "Inception",
      "genre_ids": [
        28,
        53,
        878,
        9648,
        12
      ],
      "backdrop_path": "/s2bT29y0ngXxxu2IA8AOzzXTRhd.jpg",
      "adult": false,
      "overview": "Cobb, a skilled thief who commits corporate espionage by infiltrating the subconscious of his targets is offered a chance to regain his old life as payment for a task considered to be impossible: \"inception\", the implantation of another person's idea into a target's subconscious.",
      "release_date": "2010-07-14"
    },
    {
      "vote_count": 4707,
      "id": 297762,
      "video": false,
      "vote_average": 7.2,
      "title": "Wonder Woman",
      "popularity": 450.56245,
      "poster_path": "/imekS7f1OuHyUP2LAiTEM0zBzUz.jpg",
      "original_language": "en",
      "original_title": "Wonder Woman",
      "genre_ids": [
        28,
        12,
        14
      ],
      "backdrop_path": "/6iUNJZymJBMXXriQyFZfLAKnjO6.jpg",
      "adult": false,
      "overview": "An Amazon princess comes to the world of Man to become the greatest of the female superheroes.",
      "release_date": "2017-05-30"
    },
    {
      "vote_count": 5340,
      "id": 245891,
      "video": false,
      "vote_average": 7,
      "title": "John Wick",
      "popularity": 449.087267,
      "poster_path": "/5vHssUeVe25bMrof1HyaPyWgaP.jpg",
      "original_language": "en",
      "original_title": "John Wick",
      "genre_ids": [
        28,
        53
      ],
      "backdrop_path": "/mFb0ygcue4ITixDkdr7wm1Tdarx.jpg",
      "adult": false,
      "overview": "Ex-hitman John Wick comes out of retirement to track down the gangsters that took everything from him.",
      "release_date": "2014-10-22"
    },
    {
      "vote_count": 9430,
      "id": 76341,
      "video": false,
      "vote_average": 7.2,
      "title": "Mad Max: Fury Road",
      "popularity": 446.228218,
      "poster_path": "/kqjL17yufvn9OVLyXYpvtyrFfak.jpg",
      "original_language": "en",
      "original_title": "Mad Max: Fury Road",
      "genre_ids": [
        28,
        12,
        878,
        53
      ],
      "backdrop_path": "/phszHPFVhPHhMZgo0fWTKBDQsJA.jpg",
      "adult": false,
      "overview": "An apocalyptic story set in the furthest reaches of our planet, in a stark desert landscape where humanity is broken, and most everyone is crazed fighting for the necessities of life. Within this world exist two rebels on the run who just might be able to restore order. There's Max, a man of action and a man of few words, who seeks peace of mind following the loss of his wife and child in the aftermath of the chaos. And Furiosa, a woman of action and a woman who believes her path to survival may be achieved if she can make it across the desert back to her childhood homeland.",
      "release_date": "2015-05-13"
    },
    {
      "vote_count": 5589,
      "id": 131631,
      "video": false,
      "vote_average": 6.6,
      "title": "The Hunger Games: Mockingjay - Part 1",
      "popularity": 435.484214,
      "poster_path": "/gj282Pniaa78ZJfbaixyLXnXEDI.jpg",
      "original_language": "en",
      "original_title": "The Hunger Games: Mockingjay - Part 1",
      "genre_ids": [
        878,
        12,
        53
      ],
      "backdrop_path": "/4PwyB0ErucIANzW24Kori71J6gU.jpg",
      "adult": false,
      "overview": "Katniss Everdeen reluctantly becomes the symbol of a mass rebellion against the autocratic Capitol.",
      "release_date": "2014-11-18"
    },
    {
      "vote_count": 8724,
      "id": 135397,
      "video": false,
      "vote_average": 6.5,
      "title": "Jurassic World",
      "popularity": 416.230069,
      "poster_path": "/jjBgi2r5cRt36xF6iNUEhzscEcb.jpg",
      "original_language": "en",
      "original_title": "Jurassic World",
      "genre_ids": [
        28,
        12,
        878,
        53
      ],
      "backdrop_path": "/dkMD5qlogeRMiEixC4YNPUvax2T.jpg",
      "adult": false,
      "overview": "Twenty-two years after the events of Jurassic Park, Isla Nublar now features a fully functioning dinosaur theme park, Jurassic World, as originally envisioned by John Hammond.",
      "release_date": "2015-06-09"
    },
    {
      "vote_count": 11807,
      "id": 19995,
      "video": false,
      "vote_average": 7.2,
      "title": "Avatar",
      "popularity": 413.800711,
      "poster_path": "/kmcqlZGaSh20zpTbuoF0Cdn07dT.jpg",
      "original_language": "en",
      "original_title": "Avatar",
      "genre_ids": [
        28,
        12,
        14,
        878
      ],
      "backdrop_path": "/xSxlmtLz2NYtO07N4WexY1y53pl.jpg",
      "adult": false,
      "overview": "In the 22nd century, a paraplegic Marine is dispatched to the moon Pandora on a unique mission, but becomes torn between following orders and protecting an alien civilization.",
      "release_date": "2009-12-10"
    },
    {
      "vote_count": 3307,
      "id": 315635,
      "video": false,
      "vote_average": 7.3,
      "title": "Spider-Man: Homecoming",
      "popularity": 410.819626,
      "poster_path": "/c24sv2weTHPsmDa7jEMN0m2P3RT.jpg",
      "original_language": "en",
      "original_title": "Spider-Man: Homecoming",
      "genre_ids": [
        28,
        12,
        35,
        878
      ],
      "backdrop_path": "/vMNEvp4wKAkDIODZjz5BsqVWY9y.jpg",
      "adult": false,
      "overview": "Following the events of Captain America: Civil War, Peter Parker, with the help of his mentor Tony Stark, tries to balance his life as an ordinary high school student in Queens, New York City, with fighting crime as his superhero alter ego Spider-Man as a new threat, the Vulture, emerges.",
      "release_date": "2017-07-05"
    },
    {
      "vote_count": 7250,
      "id": 271110,
      "video": false,
      "vote_average": 7.1,
      "title": "Captain America: Civil War",
      "popularity": 405.38953,
      "poster_path": "/kSBXou5Ac7vEqKd97wotJumyJvU.jpg",
      "original_language": "en",
      "original_title": "Captain America: Civil War",
      "genre_ids": [
        12,
        28,
        878
      ],
      "backdrop_path": "/m5O3SZvQ6EgD5XXXLPIP1wLppeW.jpg",
      "adult": false,
      "overview": "Following the events of Age of Ultron, the collective governments of the world pass an act designed to regulate all superhuman activity. This polarizes opinion amongst the Avengers, causing two factions to side with Iron Man or Captain America, which causes an epic battle between former allies.",
      "release_date": "2016-04-27"
    },
    {
      "vote_count": 9432,
      "id": 550,
      "video": false,
      "vote_average": 8.3,
      "title": "Fight Club",
      "popularity": 403.70228,
      "poster_path": "/adw6Lq9FiC9zjYEpOqfq03ituwp.jpg",
      "original_language": "en",
      "original_title": "Fight Club",
      "genre_ids": [
        18
      ],
      "backdrop_path": "/87hTDiay2N2qWyX4Ds7ybXi9h8I.jpg",
      "adult": false,
      "overview": "A ticking-time-bomb insomniac and a slippery soap salesman channel primal male aggression into a shocking new form of therapy. Their concept catches on, with underground \"fight clubs\" forming in every town, until an eccentric gets in the way and ignites an out-of-control spiral toward oblivion.",
      "release_date": "1999-10-15"
    },
    {
      "vote_count": 7013,
      "id": 22,
      "video": false,
      "vote_average": 7.5,
      "title": "Pirates of the Caribbean: The Curse of the Black Pearl",
      "popularity": 398.939854,
      "poster_path": "/tkt9xR1kNX5R9rCebASKck44si2.jpg",
      "original_language": "en",
      "original_title": "Pirates of the Caribbean: The Curse of the Black Pearl",
      "genre_ids": [
        12,
        14,
        28
      ],
      "backdrop_path": "/8AUQ7YlJJA9C8kWk8P4YNHIcFDE.jpg",
      "adult": false,
      "overview": "Jack Sparrow, a freewheeling 17th-century pirate who roams the Caribbean Sea, butts heads with a rival pirate bent on pillaging the village of Port Royal. When the governor's daughter is kidnapped, Sparrow decides to help the girl's love save her. But their seafaring mission is hardly simple.",
      "release_date": "2003-07-09"
    },
    {
      "vote_count": 11837,
      "id": 24428,
      "video": false,
      "vote_average": 7.4,
      "title": "The Avengers",
      "popularity": 397.367048,
      "poster_path": "/cezWGskPY5x7GaglTTRN4Fugfb8.jpg",
      "original_language": "en",
      "original_title": "The Avengers",
      "genre_ids": [
        878,
        28,
        12
      ],
      "backdrop_path": "/hbn46fQaRmlpBuUrEiFqv0GDL6Y.jpg",
      "adult": false,
      "overview": "When an unexpected enemy emerges and threatens global safety and security, Nick Fury, director of the international peacekeeping agency known as S.H.I.E.L.D., finds himself in need of a team to pull the world back from the brink of disaster. Spanning the globe, a daring recruitment effort begins!",
      "release_date": "2012-04-25"
    }
  ]
}